Division,WeightClassKg,Place,Name,Team,BodyweightKg,Best3SquatKg,Best3BenchKg,Best3DeadliftKg,TotalKg,Equipment,Event,Sex
Boys,52,1,Benny Lara,Victoria West,50.08,170.1,88.45,163.29,421.84,Single-ply,SBD,M
Boys,52,2,Esteban Urquieta,Corpus Christi Tuloso-Midway,50.53,142.88,65.77,161.03,369.68,Single-ply,SBD,M
Boys,52,3,Mason Williams,Yorktown,50.98,142.88,74.84,151.95,369.68,Single-ply,SBD,M
Boys,52,4,Jeremiah Zelaya,Victoria East,50.98,124.74,70.31,154.22,349.27,Single-ply,SBD,M
Boys,52,5,Trevor Carmona,Alice,51.99,115.67,52.16,129.27,297.1,Single-ply,SBD,M
Boys,52,6,Tristan Salinas,Corpus Christi Tuloso-Midway,49.71,104.33,49.9,108.86,263.08,Single-ply,SBD,M
Boys,52,7,Miguel Gonzalez,Alice,40.64,86.18,34.02,83.91,204.12,Single-ply,SBD,M
Boys,52,DQ,Adrian Linares,Victoria West,39.83,,,,,Single-ply,SBD,M
Boys,56,1,Cody Juarez,Alice,52.62,183.7,106.59,167.83,458.13,Single-ply,SBD,M
Boys,56,2,Michael Casillas,Victoria West,55.52,170.1,92.99,176.9,439.98,Single-ply,SBD,M
Boys,56,3,Stephen Hernandez,Victoria East,54.98,151.95,92.99,170.1,415.04,Single-ply,SBD,M
Boys,56,4,Ulysses Solis,San Antonio East Central,55.79,142.88,81.65,174.63,399.16,Single-ply,SBD,M
Boys,56,5,Marcus Garza,Alice,53.89,154.22,72.57,122.47,349.27,Single-ply,SBD,M
Boys,56,6,Gavin Muniz,Victoria West,53.8,104.33,58.97,120.2,283.5,Single-ply,SBD,M
Boys,56,DQ,Noey De la Garza,Victoria West,54.25,,,,,Single-ply,SBD,M
Boys,60,1,Moc Moo,Port Lavaca Calhoun,59.78,195.04,113.4,199.58,508.02,Single-ply,SBD,M
Boys,60,2,Jose Bautista,San Antonio East Central,57.42,176.9,102.06,165.56,444.52,Single-ply,SBD,M
Boys,60,3,Tyler Le,Palacios,58.88,163.29,92.99,183.7,439.98,Single-ply,SBD,M
Boys,60,4,Arthur Sanchez,Victoria West,58.33,149.69,74.84,161.03,385.55,Single-ply,SBD,M
Boys,60,5,John Bishop,Victoria West,58.88,147.42,72.57,129.27,349.27,Single-ply,SBD,M
Boys,60,6,Drake Moya,Beeville Jones,58.24,104.33,65.77,124.74,294.84,Single-ply,SBD,M
Boys,60,7,Trey Chavez,Palacios,58.69,115.67,,131.54,247.21,Single-ply,SD,M
Boys,60,8,Brityn Brown,Port Lavaca Calhoun,56.79,120.2,,124.74,244.94,Single-ply,SD,M
Boys,60,9,Zayne Melton,Corpus Christi Tuloso-Midway,59.42,79.38,49.9,90.72,219.99,Single-ply,SBD,M
Boys,67.5,1,Jonathan Zelaya,Victoria East,64.77,226.8,127.01,215.46,569.26,Single-ply,SBD,M
Boys,67.5,2,Jose Cumpean,Port Lavaca Calhoun,67.04,204.12,127.01,197.31,528.44,Single-ply,SBD,M
Boys,67.5,3,Chance Marler,Victoria St. Joseph,67.13,188.24,95.25,195.04,478.54,Single-ply,SBD,M
Boys,67.5,4,Dustin Torres,Beeville Jones,67.13,188.24,97.52,174.63,460.4,Single-ply,SBD,M
Boys,67.5,5,Seth O'Canas,Victoria West,66.59,163.29,108.86,172.37,444.52,Single-ply,SBD,M
Boys,67.5,6,Andrew Starlin,Victoria West,66.86,163.29,106.59,174.63,444.52,Single-ply,SBD,M
Boys,67.5,7,Gabriel Quinones,Gregory-Portland,65.23,181.44,99.79,158.76,439.98,Single-ply,SBD,M
Boys,67.5,8,Lane Stewart,Victoria St. Joseph,64.32,149.69,79.38,142.88,371.95,Single-ply,SBD,M
Boys,67.5,9,Christian Pina,Runge,61.78,131.54,74.84,136.08,342.46,Single-ply,SBD,M
Boys,67.5,10,Isaac Blanco,Corpus Christi Tuloso-Midway,63.32,161.03,83.91,83.91,328.85,Single-ply,SBD,M
Boys,67.5,11,Noah Martinez,Victoria West,63.87,124.74,72.57,129.27,326.59,Single-ply,SBD,M
Boys,67.5,12,Lupe McGinnis,Yorktown,62.87,117.93,77.11,124.74,319.78,Single-ply,SBD,M
Boys,67.5,13,Nathaniel Reyna,Victoria West,61.51,133.81,65.77,117.93,317.51,Single-ply,SBD,M
Boys,67.5,14,Kyle O'Keefe,Victoria East,60.42,115.67,56.7,129.27,301.64,Single-ply,SBD,M
Boys,67.5,15,Alex Benordan,Victoria St. Joseph,60.96,102.06,56.7,136.08,294.84,Single-ply,SBD,M
Boys,67.5,16,Nathan Nguyen,Palacios,67.13,99.79,54.43,115.67,269.89,Single-ply,SBD,M
Boys,67.5,17,Dominic Diaz,Victoria West,61.42,106.59,52.16,106.59,265.35,Single-ply,SBD,M
Boys,67.5,18,Daniel Chen,Victoria St. Joseph,61.96,97.52,,92.99,190.51,Single-ply,SD,M
Boys,67.5,DQ,Jacob Cazares,Corpus Christi Tuloso-Midway,67.13,,,,,Single-ply,SBD,M
Boys,67.5,DQ,Nicholas Padron,San Antonio East Central,67.13,,,,,Single-ply,SBD,M
Boys,75,1,Daniel Leita,Port Lavaca Calhoun,74.39,226.8,142.88,272.16,641.83,Single-ply,SBD,M
Boys,75,2,Alex Gonzales,Alice,71.76,231.33,111.13,215.46,557.92,Single-ply,SBD,M
Boys,75,3,Derrick Carroll,Beeville Jones,73.48,210.92,108.86,219.99,539.77,Single-ply,SBD,M
Boys,75,4,Richard Villarreal,San Antonio East Central,72.48,197.31,106.59,226.8,530.7,Single-ply,SBD,M
Boys,75,5,Jeremiah Lewis,San Antonio East Central,74.57,195.04,106.59,213.19,514.83,Single-ply,SBD,M
Boys,75,6,John Pizana,Corpus Christi Tuloso-Midway,71.76,183.7,111.13,204.12,498.95,Single-ply,SBD,M
Boys,75,7,Josh Villareal,Victoria West,72.57,185.97,108.86,204.12,498.95,Single-ply,SBD,M
Boys,75,8,Jamarcus Pegues,Victoria West,74.84,181.44,115.67,197.31,494.42,Single-ply,SBD,M
Boys,75,9,Noah Rodriguez,Victoria West,72.57,172.37,97.52,183.7,453.59,Single-ply,SBD,M
Boys,75,10,AJ Moreno,Alice,72.57,181.44,104.33,161.03,446.79,Single-ply,SBD,M
Boys,75,11,Tre Evans,Edna,69.76,147.42,108.86,170.1,426.38,Single-ply,SBD,M
Boys,75,12,Phillip Sullivan,Corpus Christi Tuloso-Midway,70.58,106.59,68.04,106.59,281.23,Single-ply,SBD,M
Boys,75,13,Trenton Carter,Victoria West,70.03,,77.11,106.59,183.7,Single-ply,BD,M
Boys,75,DQ,Jaun Sanchez,San Antonio East Central,74.84,,,,,Single-ply,SBD,M
Boys,82.5,1,Ken'twaun Freeman,Victoria West,80.1,226.8,129.27,226.8,582.87,Single-ply,SBD,M
Boys,82.5,2,Patrick Prieto,Beeville Jones,80.29,215.46,122.47,226.8,564.72,Single-ply,SBD,M
Boys,82.5,3,Rudy Casarez,Beeville Jones,81.1,219.99,117.93,222.26,560.19,Single-ply,SBD,M
Boys,82.5,4,Samuel Castillo,San Antonio East Central,81.01,195.04,136.08,204.12,535.24,Single-ply,SBD,M
Boys,82.5,5,Matt Vallejo,Victoria St. Joseph,76.48,204.12,124.74,204.12,532.97,Single-ply,SBD,M
Boys,82.5,6,Kyle Zipperian,Gregory-Portland,79.56,206.38,120.2,199.58,526.17,Single-ply,SBD,M
Boys,82.5,7,Morgan Segovia,Palacios,78.74,206.38,122.47,181.44,510.29,Single-ply,SBD,M
Boys,82.5,8,Isaac Bueno,Alice,80.56,208.65,120.2,174.63,503.49,Single-ply,SBD,M
Boys,82.5,9,Tyler Gassaway,Gregory-Portland,82.1,190.51,117.93,192.78,501.22,Single-ply,SBD,M
Boys,82.5,10,Jamie Rios,Port Lavaca Calhoun,79.56,190.51,106.59,190.51,487.61,Single-ply,SBD,M
Boys,82.5,11,Sam Guzman,Gregory-Portland,77.93,199.58,92.99,163.29,455.86,Single-ply,SBD,M
Boys,82.5,12,Liam Porr,Victoria St. Joseph,79.92,174.63,106.59,174.63,455.86,Single-ply,SBD,M
Boys,82.5,13,Sabastian Garcia,Corpus Christi Tuloso-Midway,80.1,174.63,102.06,167.83,444.52,Single-ply,SBD,M
Boys,82.5,14,Michael Flores,Palacios,79.65,156.49,92.99,172.37,421.84,Single-ply,SBD,M
Boys,82.5,15,Jc Maldonado,Corpus Christi Tuloso-Midway,75.21,154.22,83.91,161.03,399.16,Single-ply,SBD,M
Boys,82.5,16,Bailey Rabb,Victoria East,79.47,145.15,95.25,154.22,394.63,Single-ply,SBD,M
Boys,82.5,17,Chayce Grevey,Victoria West,75.39,229.06,158.76,,387.82,Single-ply,SB,M
Boys,82.5,18,Tyler Shelton,Victoria West,81.83,165.56,,188.24,353.8,Single-ply,SD,M
Boys,82.5,19,Xavier Rivera,Port Lavaca Calhoun,80.56,174.63,,,174.63,Single-ply,S,M
Boys,90,1,Chris Madrigal,Beeville Jones,86.82,272.16,174.63,256.28,703.07,Single-ply,SBD,M
Boys,90,2,Dominic Garcia,Palacios,88.27,226.8,142.88,235.87,605.55,Single-ply,SBD,M
Boys,90,3,Sylias Montgomery,Port Lavaca Calhoun,89.81,235.87,106.59,240.4,582.87,Single-ply,SBD,M
Boys,90,4,Elijah Edwards,Palacios,89.63,199.58,136.08,240.4,576.06,Single-ply,SBD,M
Boys,90,5,Raul Padilla,Victoria West,89.45,197.31,151.95,190.51,539.77,Single-ply,SBD,M
Boys,90,6,Adam Nguyen,Palacios,88,199.58,111.13,197.31,508.02,Single-ply,SBD,M
Boys,90,7,Zuriel Adusei,Gregory-Portland,88.27,204.12,111.13,190.51,505.76,Single-ply,SBD,M
Boys,90,8,Dante Vasquez,Corpus Christi Tuloso-Midway,87.63,199.58,115.67,176.9,492.15,Single-ply,SBD,M
Boys,90,9,Andrew Flores,Gregory-Portland,83.55,172.37,102.06,190.51,464.93,Single-ply,SBD,M
Boys,90,10,Jacob Arredondo,Beeville Jones,86.82,183.7,106.59,172.37,462.66,Single-ply,SBD,M
Boys,90,11,John Eguia,Corpus Christi Tuloso-Midway,87.91,170.1,117.93,172.37,460.4,Single-ply,SBD,M
Boys,90,12,Brady Raines,Gregory-Portland,86.09,145.15,88.45,158.76,392.36,Single-ply,SBD,M
Boys,90,13,Edelmiro Reyna,Gregory-Portland,84.1,161.03,90.72,136.08,387.82,Single-ply,SBD,M
Boys,90,14,Isiah Estrada,Victoria St. Joseph,89.81,129.27,77.11,142.88,349.27,Single-ply,SBD,M
Boys,90,15,Ethan Rios,Victoria West,87,61.23,47.63,92.99,201.85,Single-ply,SBD,M
Boys,90,DQ,Troy Eubanks,Gregory-Portland,89.81,,,,,Single-ply,SBD,M
Boys,100,1,Eddie Garcia,Port Lavaca Calhoun,98.43,301.64,154.22,247.21,703.07,Single-ply,SBD,M
Boys,100,2,Nick Galvan,Beeville Jones,96.98,276.69,179.17,238.14,694,Single-ply,SBD,M
Boys,100,3,Aaron Puga,Beeville Jones,98.25,272.16,124.74,226.8,623.69,Single-ply,SBD,M
Boys,100,4,George Villela,Gregory-Portland,98.25,222.26,154.22,213.19,589.67,Single-ply,SBD,M
Boys,100,5,Cesar Jimenez,Palacios,96.62,204.12,124.74,206.38,535.24,Single-ply,SBD,M
Boys,100,6,Jeremy Trevino,Gregory-Portland,98.97,206.38,99.79,181.44,487.61,Single-ply,SBD,M
Boys,100,7,Abram Delao,Victoria East,97.98,183.7,102.06,183.7,469.47,Single-ply,SBD,M
Boys,100,8,Richard Villarea,Yorktown,93.62,190.51,106.59,167.83,464.93,Single-ply,SBD,M
Boys,100,9,Brig Nelson,Victoria St. Joseph,90.63,181.44,102.06,174.63,458.13,Single-ply,SBD,M
Boys,100,10,Alfanso Montiel,Alice,95.71,104.33,72.57,,176.9,Single-ply,SB,M
Boys,100,11,Juan Inclan,Runge,93.44,140.61,,,140.61,Single-ply,S,M
Boys,110,1,Leo Colom,Port Lavaca Calhoun,104.6,238.14,142.88,260.82,641.83,Single-ply,SBD,M
Boys,110,2,Anthony Cantu,San Antonio East Central,107.41,263.08,124.74,219.99,607.81,Single-ply,SBD,M
Boys,110,3,Celestino Alvarez,Victoria East,103.42,251.74,127.01,208.65,587.4,Single-ply,SBD,M
Boys,110,4,Bryce Long,San Antonio East Central,106.87,226.8,158.76,201.85,587.4,Single-ply,SBD,M
Boys,110,5,Sebastian Opal,Gregory-Portland,102.69,183.7,115.67,172.37,471.74,Single-ply,SBD,M
Boys,110,6,Ethan Carr,Palacios,101.15,163.29,77.11,145.15,385.55,Single-ply,SBD,M
Boys,110,7,Mario Cano,Beeville Jones,109.77,142.88,95.25,142.88,381.02,Single-ply,SBD,M
Boys,110,8,Christian Gomez,Victoria East,108.86,158.76,,158.76,317.51,Single-ply,SD,M
Boys,110,DQ,Aaron Bradasich,Victoria St. Joseph,109.77,,,,,Single-ply,SBD,M
Boys,125,1,Jason Suniga,Victoria West,118.21,301.64,170.1,206.38,678.12,Single-ply,SBD,M
Boys,125,2,Malakye Adams,Victoria East,122.74,260.82,154.22,210.92,625.96,Single-ply,SBD,M
Boys,125,3,Ray Martinez,Port Lavaca Calhoun,119.39,217.72,133.81,174.63,526.17,Single-ply,SBD,M
Boys,125,4,Jaedon Hinchliffe,Palacios,112.4,188.24,111.13,210.92,510.29,Single-ply,SBD,M
Boys,125,5,Jorge Vazquez,Victoria East,117.93,192.78,115.67,192.78,501.22,Single-ply,SBD,M
Boys,125,6,Sergio Calvo,Victoria St. Joseph,114.12,190.51,92.99,192.78,476.27,Single-ply,SBD,M
Boys,125,7,Morgan Neuman,Edna,122.83,174.63,86.18,154.22,415.04,Single-ply,SBD,M
Boys,125,8,Trevor Benavides,Victoria West,120.11,156.49,106.59,142.88,405.97,Single-ply,SBD,M
Boys,125,9,Osbalbo Gonzales,Alice,110.59,,115.67,,115.67,Single-ply,B,M
Boys,125,DQ,Justin Broil,Yorktown,124.74,,,,,Single-ply,SBD,M
Boys,125+,1,Drew Hathaway,Victoria West,128,217.72,167.83,215.46,601.01,Single-ply,SBD,M
Boys,125+,2,Ruben Avila,Victoria West,144.7,238.14,142.88,219.99,601.01,Single-ply,SBD,M
Boys,125+,3,Wyatt Neuman,Edna,127.82,226.8,117.93,206.38,551.11,Single-ply,SBD,M
Boys,125+,4,Daniel Martinez,Beeville Jones,134.44,206.38,151.95,192.78,551.11,Single-ply,SBD,M
Boys,125+,5,Leo Madera,Port Lavaca Calhoun,136.8,204.12,142.88,195.04,542.04,Single-ply,SBD,M
Boys,125+,6,Trevor Gloor,Victoria St. Joseph,127.73,208.65,108.86,188.24,505.76,Single-ply,SBD,M
