Division,WeightClassKg,Place,Name,Team,BodyweightKg,Best3SquatKg,Best3BenchKg,Best3DeadliftKg,TotalKg,Equipment,Event,Sex
Boys,52,1,Cain Gala,Hallsville,51.53,120.2,81.65,136.08,337.93,Single-ply,SBD,M
Boys,52,2,Jayden Prince,Waskom,51.71,90.72,68.04,136.08,294.84,Single-ply,SBD,M
Boys,52,3,Shmar Garrett,Carthage,47.99,74.84,65.77,90.72,231.33,Single-ply,SBD,M
Boys,56,1,Rodrigo Rojas,Hallsville,55.79,127.01,83.91,151.95,362.87,Single-ply,SBD,M
Boys,56,2,Simon Schuler,Hallsville,55.47,122.47,83.91,140.61,347,Single-ply,SBD,M
Boys,56,3,Jordan Prignet,Atlanta,55.52,120.2,54.43,131.54,306.17,Single-ply,SBD,M
Boys,56,4,Nick Fincher,Waskom,53.61,97.52,52.16,127.01,276.69,Single-ply,SBD,M
Boys,56,5,Cesar Montes,New Summerfield,54.98,,65.77,117.93,183.7,Single-ply,BD,M
Boys,60,1,Roshabrius Garrett,Carthage,59.24,140.61,95.25,145.15,381.02,Single-ply,SBD,M
Boys,60,2,Dalton Johnson,Atlanta,59.6,136.08,79.38,154.22,369.68,Single-ply,SBD,M
Boys,60,3,Nathan Johnson,Atlanta,59.69,117.93,83.91,129.27,331.12,Single-ply,SBD,M
Boys,60,4,Caleb Purifoy,Hallsville,59.01,113.4,81.65,120.2,315.25,Single-ply,SBD,M
Boys,60,5,Thomas Steward,Atlanta,59.87,102.06,72.57,115.67,290.3,Single-ply,SBD,M
Boys,60,6,Brett Piazza,Atlanta,59.83,95.25,70.31,120.2,285.76,Single-ply,SBD,M
Boys,60,7,Jace Link,Hallsville,58.33,106.59,,117.93,224.53,Single-ply,SD,M
Boys,60,8,Andy Espino,New Summerfield,58.2,,,83.91,83.91,Single-ply,D,M
Boys,67.5,1,Austin Brown,Atlanta,65.86,138.35,83.91,181.44,403.7,Single-ply,SBD,M
Boys,67.5,2,Pedro Rodriquez,Waskom,63.05,158.76,92.99,142.88,394.63,Single-ply,SBD,M
Boys,67.5,3,Bryan Holland,Waskom,63,122.47,74.84,136.08,333.39,Single-ply,SBD,M
Boys,67.5,4,Chase Phagan,Waskom,65.32,124.74,74.84,131.54,331.12,Single-ply,SBD,M
Boys,67.5,5,Thomas Scott,Atlanta,67.04,102.06,74.84,142.88,319.78,Single-ply,SBD,M
Boys,67.5,6,Camon Phillips,Waskom,63.96,111.13,56.7,136.08,303.91,Single-ply,SBD,M
Boys,67.5,7,Tyler Bumpers,Waskom,62.14,102.06,65.77,127.01,294.84,Single-ply,SBD,M
Boys,75,1,Chris Stafford,Waskom,71.67,181.44,113.4,195.04,489.88,Single-ply,SBD,M
Boys,75,2,Clayton Mosley,Atlanta,74.3,174.63,122.47,188.24,485.34,Single-ply,SBD,M
Boys,75,3,Jacob Nash,Atlanta,74.66,158.76,99.79,174.63,433.18,Single-ply,SBD,M
Boys,75,4,Jalen Brooks,Carthage,74.03,165.56,81.65,181.44,428.64,Single-ply,SBD,M
Boys,75,5,Caleb Drake,Hallsville,70.85,151.95,97.52,165.56,415.04,Single-ply,SBD,M
Boys,75,6,Chad West,Carthage,70.94,167.83,79.38,151.95,399.16,Single-ply,SBD,M
Boys,75,7,Matt Yell,Waskom,70.31,106.59,70.31,142.88,319.78,Single-ply,SBD,M
Boys,75,8,Daniel Porras,New Summerfield,74.48,90.72,56.7,90.72,238.14,Single-ply,SBD,M
Boys,82.5,1,Josh Cole,Waskom,78.83,192.78,95.25,192.78,480.81,Single-ply,SBD,M
Boys,82.5,2,Nate Irving,Waskom,82.1,190.51,99.79,188.24,478.54,Single-ply,SBD,M
Boys,82.5,3,Greg Hurst,Carthage,79.15,170.1,102.06,195.04,467.2,Single-ply,SBD,M
Boys,82.5,4,Dominique Felder,Hallsville,76.84,158.76,92.99,183.7,435.45,Single-ply,SBD,M
Boys,90,1,Nick Cooper,Atlanta,87.45,233.6,136.08,242.67,612.35,Single-ply,SBD,M
Boys,90,2,Zee Barfoot,Atlanta,87.63,199.58,138.35,201.85,539.77,Single-ply,SBD,M
Boys,90,3,Kingrey Sullens,Hallsville,89.04,195.04,122.47,190.51,508.02,Single-ply,SBD,M
Boys,90,4,Martin Figuroa,Hallsville,88.13,174.63,111.13,208.65,494.42,Single-ply,SBD,M
Boys,90,5,Reggie Blaylock,Atlanta,88.45,183.7,104.33,181.44,469.47,Single-ply,SBD,M
Boys,90,6,Cade Fant,Atlanta,89.81,151.95,81.65,174.63,408.23,Single-ply,SBD,M
Boys,100,1,Mykel Gates,Carthage,97.79,229.06,117.93,238.14,585.13,Single-ply,SBD,M
Boys,100,2,Brett Parks,Hallsville,91.85,167.83,102.06,181.44,451.32,Single-ply,SBD,M
Boys,100,3,Luis Acosta,Hallsville,98.02,167.83,88.45,190.51,446.79,Single-ply,SBD,M
Boys,100,4,Jacoby Rogers,Atlanta,98.25,158.76,113.4,170.1,442.25,Single-ply,SBD,M
Boys,100,5,Francisco Martinez,Atlanta,97.43,149.69,95.25,174.63,419.57,Single-ply,SBD,M
Boys,100,6,Jared Cowgill,Atlanta,93.08,158.76,95.25,156.49,410.5,Single-ply,SBD,M
Boys,100,7,Jack Henderson,Atlanta,96.89,158.76,90.72,158.76,408.23,Single-ply,SBD,M
Boys,100,8,Garon Dupree,Atlanta,92.26,124.74,79.38,122.47,326.59,Single-ply,SBD,M
Boys,110,1,Tristan Allen,Atlanta,101.51,167.83,122.47,231.33,521.63,Single-ply,SBD,M
Boys,110,2,Josh Wiley,Atlanta,103.78,165.56,106.59,179.17,451.32,Single-ply,SBD,M
Boys,110,3,Hunter Gauger,Carthage,101.7,151.95,106.59,183.7,442.25,Single-ply,SBD,M
Boys,110,4,Tanner Koenig,Hallsville,102.19,156.49,81.65,167.83,405.97,Single-ply,SBD,M
Boys,110,5,Jacob Humphrey,Atlanta,106.5,129.27,61.23,136.08,326.59,Single-ply,SBD,M
Boys,110,6,Darrian Ingram,Carthage,102.1,167.83,113.4,,281.23,Single-ply,SB,M
Boys,125,1,Cecil Johnson,Hallsville,113.44,233.6,129.27,215.46,578.33,Single-ply,SBD,M
Boys,125,2,Tanner Morris,Hallsville,122.7,204.12,136.08,204.12,544.31,Single-ply,SBD,M
Boys,125,3,Antonio Ortiz,Hallsville,118.02,206.38,129.27,181.44,517.1,Single-ply,SBD,M
Boys,125,4,Hunter Hudson,Carthage,122.2,165.56,133.81,215.46,514.83,Single-ply,SBD,M
Boys,125,5,Dylan Russell,Hallsville,113.22,163.29,113.4,181.44,458.13,Single-ply,SBD,M
Boys,125,6,Brandon Collier,Carthage,123.92,165.56,97.52,183.7,446.79,Single-ply,SBD,M
Boys,125,7,Will Barnett,Waskom,111.18,,61.23,136.08,197.31,Single-ply,BD,M
Boys,125+,1,Jack Smith,Waskom,151.5,222.26,127.01,215.46,564.72,Single-ply,SBD,M
Boys,125+,2,Blake Trainor,Hallsville,141.66,181.44,104.33,217.72,503.49,Single-ply,SBD,M
Boys,125+,3,Dustin Williams,Atlanta,127.46,183.7,124.74,185.97,494.42,Single-ply,SBD,M
Boys,125+,4,Dillon Ebarb,Carthage,129.91,181.44,117.93,188.24,487.61,Single-ply,SBD,M
Boys,125+,5,Casey Jones,Carthage,135.94,165.56,117.93,188.24,471.74,Single-ply,SBD,M
Boys,125+,6,Rylan Tipton,Hallsville,128.87,156.49,95.25,181.44,433.18,Single-ply,SBD,M
Boys,125+,7,Kam Luster,Waskom,134.63,,108.86,172.37,281.23,Single-ply,BD,M
