Division,WeightClassKg,Place,Name,Team,BodyweightKg,Best3SquatKg,Best3BenchKg,Best3DeadliftKg,TotalKg,Equipment,Event,Sex
Boys,52,1,Jordan Bass,Godley,51.71,122.47,68.04,106.59,297.1,Single-ply,SBD,M
Boys,52,2,Jared Rocha,Waco Reicher Catholic,51.71,90.72,52.16,133.81,276.69,Single-ply,SBD,M
Boys,52,3,Chandler McVan,Waco Reicher Catholic,50.08,81.65,47.63,120.2,249.48,Single-ply,SBD,M
Boys,52,4,Zach Brimingham,Alvarado,46.08,63.5,40.82,77.11,181.44,Single-ply,SBD,M
Boys,52,DQ,Cole Peters,Alvarado,51.71,,,,,Single-ply,SBD,M
Boys,56,1,Alex Schaefer,Venus,54.98,145.15,74.84,158.76,378.75,Single-ply,SBD,M
Boys,56,2,Eduardo Perez,Venus,55.7,129.27,74.84,133.81,337.93,Single-ply,SBD,M
Boys,56,3,Cameron Buck,Venus,55.7,106.59,52.16,115.67,274.42,Single-ply,SBD,M
Boys,60,1,Hayden Brown,Rio Vista,59.87,147.42,92.99,149.69,390.09,Single-ply,SBD,M
Boys,60,2,Joshua Vandygrift,Godley,58.33,142.88,86.18,158.76,387.82,Single-ply,SBD,M
Boys,60,3,TJ Renfro,Thrall,59.87,131.54,88.45,165.56,385.55,Single-ply,SBD,M
Boys,60,4,Diego Solis,Godley,56.43,124.74,63.5,127.01,315.25,Single-ply,SBD,M
Boys,60,5,Thomas Sharp,Waco Reicher Catholic,56.97,108.86,70.31,129.27,308.44,Single-ply,SBD,M
Boys,60,6,Drew Worthington,Alvarado,59.78,97.52,65.77,111.13,274.42,Single-ply,SBD,M
Boys,67.5,1,Casey Stevenson,Rio Vista,64.23,172.37,102.06,181.44,455.86,Single-ply,SBD,M
Boys,67.5,2,Ethan Pierce,Rogers,62.96,172.37,95.25,170.1,437.72,Single-ply,SBD,M
Boys,67.5,3,Xavier Fisher,Waco La Vega,65.86,167.83,83.91,181.44,433.18,Single-ply,SBD,M
Boys,67.5,4,Israel Castillo,Venus,63.41,158.76,79.38,181.44,419.57,Single-ply,SBD,M
Boys,67.5,5,David Barrerea,Venus,64.68,136.08,79.38,156.49,371.95,Single-ply,SBD,M
Boys,67.5,6,Jose Maldonado,Venus,66.13,142.88,77.11,151.95,371.95,Single-ply,SBD,M
Boys,67.5,7,Blake Boyd,Alvarado,63.5,147.42,79.38,129.27,356.07,Single-ply,SBD,M
Boys,67.5,8,Aaron Seery,Alvarado,61.69,136.08,77.11,136.08,349.27,Single-ply,SBD,M
Boys,67.5,9,Brayden McAfee,Riesel,63.96,102.06,65.77,104.33,272.16,Single-ply,SBD,M
Boys,75,1,Emanuel Silva,Venus,74.84,226.8,104.33,197.31,528.44,Single-ply,SBD,M
Boys,75,2,Daniel Mapes,Godley,74.84,181.44,108.86,181.44,471.74,Single-ply,SBD,M
Boys,75,3,Angel Esparza,Godley,69.67,170.1,104.33,172.37,446.79,Single-ply,SBD,M
Boys,75,4,River Stone,Venus,69.85,179.17,65.77,195.04,439.98,Single-ply,SBD,M
Boys,75,5,Augustus Mulsow,Riesel,70.85,147.42,99.79,158.76,405.97,Single-ply,SBD,M
Boys,75,6,Philippe Hickman,Waco Reicher Catholic,68.76,147.42,92.99,151.95,392.36,Single-ply,SBD,M
Boys,75,7,Javin Hebert,Godley,70.31,120.2,68.04,136.08,324.32,Single-ply,SBD,M
Boys,75,8,Dalton Boeche,Riesel,68.13,122.47,65.77,122.47,310.71,Single-ply,SBD,M
Boys,75,9,Josh Smith #12,Alvarado,74.3,204.12,,,204.12,Single-ply,S,M
Boys,75,10,Chris Williams #2,Rio Vista,70.13,188.24,,,188.24,Single-ply,S,M
Boys,82.5,1,Bradley Bass,Waco Reicher Catholic,77.38,204.12,127.01,190.51,521.63,Single-ply,SBD,M
Boys,82.5,2,Jason Wiggin,Rio Vista,79.47,192.78,113.4,172.37,478.54,Single-ply,SBD,M
Boys,82.5,3,Anthony Rivera,Rio Vista,82.1,158.76,117.93,181.44,458.13,Single-ply,SBD,M
Boys,82.5,4,Logan Randle,Rio Vista,80.01,149.69,97.52,167.83,415.04,Single-ply,SBD,M
Boys,82.5,5,Jack Fulcher,Godley,78.2,140.61,90.72,142.88,374.21,Single-ply,SBD,M
Boys,82.5,6,Jason Gonzalez,Ferris,79.56,142.88,74.84,156.49,374.21,Single-ply,SBD,M
Boys,82.5,7,Noel Vasquez,Ferris,76.75,124.74,70.31,138.35,333.39,Single-ply,SBD,M
Boys,82.5,8,Danny Rowe,Alvarado,82.1,133.81,95.25,97.52,326.59,Single-ply,SBD,M
Boys,82.5,9,Erik Fisk,Godley,81.1,149.69,81.65,,231.33,Single-ply,SB,M
Boys,82.5,10,Manual Mendoza,Ferris,79.2,127.01,,,127.01,Single-ply,S,M
Boys,82.5,DQ,Christian Johnson,Riesel,79.92,,,,,Single-ply,SBD,M
Boys,90,1,Chris Reyes,Crowley,88.9,238.14,154.22,240.4,632.76,Single-ply,SBD,M
Boys,90,2,Cade Lewis,Venus,88.27,226.8,95.25,222.26,544.31,Single-ply,SBD,M
Boys,90,3,Matthew Freeman,Venus,88.45,215.46,115.67,206.38,537.51,Single-ply,SBD,M
Boys,90,4,Trey Lewis,Venus,87.45,190.51,102.06,192.78,485.34,Single-ply,SBD,M
Boys,90,5,Devin Lummus,Godley,89.81,190.51,117.93,165.56,474,Single-ply,SBD,M
Boys,90,6,Reid Steel,Crowley,89.36,170.1,104.33,163.29,437.72,Single-ply,SBD,M
Boys,90,7,Justin Holifield,Ferris,86.36,140.61,97.52,167.83,405.97,Single-ply,SBD,M
Boys,100,1,Lupe Silva,Venus,97.43,238.14,145.15,231.33,614.62,Single-ply,SBD,M
Boys,100,2,Pete Sosa,Alvarado,98.52,254.01,147.42,204.12,605.55,Single-ply,SBD,M
Boys,100,3,Jared Grooms,Waco Reicher Catholic,91.26,181.44,113.4,192.78,487.61,Single-ply,SBD,M
Boys,100,4,Fabian Alvarez,Rio Vista,96.16,176.9,90.72,181.44,449.06,Single-ply,SBD,M
Boys,100,5,Chance Boetcher,Waco Reicher Catholic,96.62,161.03,92.99,176.9,430.91,Single-ply,SBD,M
Boys,100,6,Jarrett Vickery,Crowley,95.03,140.61,88.45,158.76,387.82,Single-ply,SBD,M
Boys,100,7,Colton Schmedthorst,Riesel,95.89,142.88,79.38,161.03,383.29,Single-ply,SBD,M
Boys,100,8,Jayden Arthur,Alvarado,99.52,108.86,74.84,136.08,319.78,Single-ply,SBD,M
Boys,110,1,Silas McLatchey,Alvarado,109.13,254.01,154.22,208.65,616.89,Single-ply,SBD,M
Boys,110,2,Austin Gonzales,Alvarado,104.87,235.87,149.69,190.51,576.06,Single-ply,SBD,M
Boys,110,3,Casey Allison,Waco La Vega,109.68,195.04,122.47,197.31,514.83,Single-ply,SBD,M
Boys,110,4,Michael Simmons,Waco La Vega,101.51,208.65,108.86,181.44,498.95,Single-ply,SBD,M
Boys,110,5,Leo Figueroa,Ferris,103.33,172.37,92.99,142.88,408.23,Single-ply,SBD,M
Boys,110,6,Gabriel Gongora,Waco La Vega,104.78,156.49,90.72,151.95,399.16,Single-ply,SBD,M
Boys,125,1,Jairo Rodriguez,Waco La Vega,122.47,238.14,136.08,226.8,601.01,Single-ply,SBD,M
Boys,125,2,Cameron Preston,Crowley,117.12,183.7,102.06,176.9,462.66,Single-ply,SBD,M
Boys,125,3,Angel Pena,Alvarado,124.74,149.69,97.52,170.1,417.3,Single-ply,SBD,M
Boys,125,DQ,Lio Reyes,Alvarado,114.76,272.16,167.83,226.8,,Single-ply,SBD,M
Boys,125+,1,David Garcia,Venus,139.25,272.16,192.78,235.87,700.8,Single-ply,SBD,M
Boys,125+,2,Colton Garrett,Alvarado,136.08,190.51,129.27,181.44,501.22,Single-ply,SBD,M
Boys,125+,DQ,Traylon Berry,Waco La Vega,140.7,,,,,Single-ply,SBD,M
Boys,,DQ,Zach Johle,Thrall,,,,,,Single-ply,SBD,M
Boys,,DQ,Landon Mikulencak,Thrall,,,,,,Single-ply,SBD,M
Boys,,DQ,Chris Rodriguez,Crowley,,,,,,Single-ply,SBD,M
Boys,,DQ,James Vickery,Crowley,,,,,,Single-ply,SBD,M
